G75*
%MOIN*%
%OFA0B0*%
%FSLAX24Y24*%
%IPPOS*%
%LPD*%
%AMOC8*
5,1,8,0,0,1.08239X$1,22.5*
%
%ADD10C,0.0030*%
%ADD11C,0.0787*%
%ADD12R,0.1575X0.0787*%
%ADD13R,0.0354X0.0276*%
%ADD14C,0.0500*%
%ADD15OC8,0.0780*%
%ADD16OC8,0.0600*%
%ADD17C,0.0280*%
%ADD18C,0.0080*%
%ADD19C,0.0050*%
%ADD20C,0.0160*%
D10*
X007675Y009357D02*
X007592Y009440D01*
X007675Y009524D01*
X007842Y009524D01*
X007758Y009615D02*
X007842Y009698D01*
X007592Y009698D01*
X007592Y009615D02*
X007592Y009781D01*
X007592Y009872D02*
X007592Y009914D01*
X007633Y009914D01*
X007633Y009872D01*
X007592Y009872D01*
X007592Y010001D02*
X007592Y010168D01*
X007592Y010085D02*
X007842Y010085D01*
X007758Y010001D01*
X007842Y009357D02*
X007675Y009357D01*
X008112Y009379D02*
X008278Y009546D01*
X008320Y009546D01*
X008362Y009504D01*
X008362Y009421D01*
X008320Y009379D01*
X008320Y009637D02*
X008362Y009679D01*
X008362Y009762D01*
X008320Y009804D01*
X008278Y009804D01*
X008112Y009637D01*
X008112Y009804D01*
X008112Y009895D02*
X008362Y010062D01*
X008278Y010153D02*
X008362Y010236D01*
X008112Y010236D01*
X008112Y010153D02*
X008112Y010319D01*
X008153Y010410D02*
X008320Y010577D01*
X008153Y010577D01*
X008112Y010536D01*
X008112Y010452D01*
X008153Y010410D01*
X008320Y010410D01*
X008362Y010452D01*
X008362Y010536D01*
X008320Y010577D01*
X008112Y010668D02*
X008362Y010835D01*
X008278Y010926D02*
X008362Y011009D01*
X008112Y011009D01*
X008112Y010926D02*
X008112Y011093D01*
X008237Y011184D02*
X008237Y011351D01*
X008112Y011309D02*
X008362Y011309D01*
X008237Y011184D01*
X008112Y009546D02*
X008112Y009379D01*
D11*
X005157Y010924D03*
X005157Y011924D03*
X005157Y012924D03*
X004157Y012924D03*
X004157Y011924D03*
X004157Y010924D03*
D12*
X001657Y011484D03*
X001657Y012484D03*
D13*
X001697Y013268D03*
X001697Y013780D03*
X001697Y010660D03*
X001697Y010148D03*
D14*
X004147Y009924D03*
X005147Y009924D03*
D15*
X005347Y018324D03*
X005347Y019324D03*
X006347Y019324D03*
X006347Y018324D03*
X004347Y018324D03*
X004347Y019324D03*
X003347Y019324D03*
X003347Y018324D03*
D16*
X002517Y017184D03*
X002517Y016184D03*
X001517Y016184D03*
X001517Y017184D03*
X001557Y026464D03*
X001557Y027464D03*
X002557Y027464D03*
X002557Y026464D03*
X006837Y026344D03*
X006837Y027344D03*
X007837Y027344D03*
X007837Y026344D03*
X007837Y017184D03*
X007837Y016184D03*
X006837Y016184D03*
X006837Y017184D03*
D17*
X006737Y014404D03*
X006187Y014204D03*
X005937Y013684D03*
X006027Y012844D03*
X006017Y012164D03*
X005817Y011424D03*
X006007Y010044D03*
X005137Y013444D03*
X005457Y013604D03*
X004657Y013364D03*
X004177Y013444D03*
X004407Y011924D03*
X004627Y010364D03*
X003777Y010644D03*
X003517Y009854D03*
X002887Y010884D03*
X003357Y012244D03*
X003357Y012624D03*
X003537Y013124D03*
X003137Y013124D03*
X002667Y014684D03*
X004257Y023044D03*
X002977Y025444D03*
X006497Y025444D03*
D18*
X004257Y023044D02*
X003857Y022564D01*
X003857Y018844D01*
X003347Y018334D01*
X003347Y018324D01*
X002497Y014084D02*
X005537Y014084D01*
X005937Y013684D01*
X006153Y013684D01*
X006297Y013540D01*
X006297Y012684D01*
X006097Y012484D01*
X005937Y012484D01*
X005757Y012294D01*
X005757Y012044D01*
X005992Y011799D01*
X006202Y011799D01*
X006407Y011594D01*
X006407Y009924D01*
X005777Y009294D01*
X003511Y009294D01*
X002657Y010148D01*
X002865Y010148D01*
X003377Y010660D01*
X003761Y010660D01*
X003777Y010644D01*
X003777Y010924D01*
X004157Y010924D01*
X004177Y010944D01*
X004177Y010964D01*
X004097Y011044D01*
X004157Y011924D02*
X004157Y012084D01*
X004157Y012924D02*
X004157Y013444D01*
X004177Y013444D01*
X004657Y013364D02*
X004657Y011444D01*
X005157Y010944D01*
X005157Y010924D01*
X005157Y011044D01*
X005157Y011924D02*
X005157Y012124D01*
X005657Y012624D01*
X005657Y013364D01*
X005457Y013564D01*
X005457Y013604D01*
X005157Y013444D02*
X005157Y012924D01*
X005137Y013444D02*
X005157Y013444D01*
X005817Y011424D02*
X005857Y011384D01*
X005857Y010474D01*
X005847Y010464D01*
X005147Y009924D01*
X004627Y010364D02*
X004457Y010194D01*
X004147Y009924D01*
X002897Y011444D02*
X003617Y012164D01*
X003617Y012804D01*
X003537Y012884D01*
X003537Y013124D01*
X003357Y012624D02*
X003217Y012484D01*
X001657Y012484D01*
X001657Y013228D01*
X001697Y013268D01*
X001697Y013780D02*
X002193Y013780D01*
X002497Y014084D01*
X002817Y012244D02*
X003357Y012244D01*
X002897Y011444D02*
X002897Y010894D01*
X002887Y010884D01*
X002657Y010148D02*
X001697Y010148D01*
X001697Y010660D02*
X001657Y010700D01*
X001657Y011484D01*
X002057Y011484D01*
X002817Y012244D01*
X006017Y012164D02*
X006257Y012164D01*
X006657Y012564D01*
X006657Y014404D01*
X006737Y014404D01*
D19*
X008532Y009079D02*
X000830Y009079D01*
X000830Y011010D01*
X000834Y011005D01*
X001532Y011005D01*
X001532Y010883D01*
X001484Y010883D01*
X001435Y010833D01*
X001435Y010487D01*
X001484Y010437D01*
X001909Y010437D01*
X001959Y010487D01*
X001959Y010833D01*
X001909Y010883D01*
X001782Y010883D01*
X001782Y011005D01*
X002479Y011005D01*
X002529Y011055D01*
X002529Y011780D01*
X002868Y012119D01*
X003163Y012119D01*
X003263Y012019D01*
X003295Y012019D01*
X002845Y011569D01*
X002772Y011496D01*
X002772Y011087D01*
X002662Y010977D01*
X002662Y010791D01*
X002793Y010659D01*
X002980Y010659D01*
X003112Y010791D01*
X003112Y010977D01*
X003022Y011067D01*
X003022Y011392D01*
X003646Y012017D01*
X003638Y011965D01*
X003638Y011949D01*
X004132Y011949D01*
X004132Y012443D01*
X004116Y012443D01*
X004035Y012430D01*
X003958Y012405D01*
X003885Y012368D01*
X003819Y012320D01*
X003761Y012262D01*
X003742Y012235D01*
X003742Y012675D01*
X003751Y012653D01*
X003886Y012518D01*
X004061Y012445D01*
X004252Y012445D01*
X004428Y012518D01*
X004532Y012622D01*
X004532Y012283D01*
X004495Y012320D01*
X004429Y012368D01*
X004356Y012405D01*
X004278Y012430D01*
X004197Y012443D01*
X004182Y012443D01*
X004182Y011949D01*
X004532Y011949D01*
X004532Y011899D01*
X004182Y011899D01*
X004182Y011949D01*
X004132Y011949D01*
X004132Y011899D01*
X004182Y011899D01*
X004182Y011405D01*
X004197Y011405D01*
X004278Y011418D01*
X004356Y011443D01*
X004429Y011481D01*
X004495Y011529D01*
X004532Y011566D01*
X004532Y011392D01*
X004744Y011180D01*
X004678Y011019D01*
X004678Y010829D01*
X004751Y010653D01*
X004886Y010518D01*
X005061Y010445D01*
X005252Y010445D01*
X005428Y010518D01*
X005562Y010653D01*
X005635Y010829D01*
X005635Y011019D01*
X005562Y011195D01*
X005428Y011330D01*
X005252Y011403D01*
X005061Y011403D01*
X004929Y011348D01*
X004782Y011496D01*
X004782Y011622D01*
X004886Y011518D01*
X005061Y011445D01*
X005252Y011445D01*
X005428Y011518D01*
X005562Y011653D01*
X005635Y011829D01*
X005635Y011989D01*
X005667Y011957D01*
X005867Y011749D01*
X005867Y011747D01*
X005902Y011712D01*
X005937Y011675D01*
X005939Y011675D01*
X005940Y011674D01*
X005990Y011674D01*
X006041Y011673D01*
X006042Y011674D01*
X006150Y011674D01*
X006282Y011542D01*
X006282Y009976D01*
X005725Y009419D01*
X003563Y009419D01*
X002938Y010044D01*
X003428Y010535D01*
X003568Y010535D01*
X003683Y010419D01*
X003870Y010419D01*
X003945Y010494D01*
X004061Y010445D01*
X004252Y010445D01*
X004428Y010518D01*
X004562Y010653D01*
X004635Y010829D01*
X004635Y011019D01*
X004562Y011195D01*
X004428Y011330D01*
X004252Y011403D01*
X004061Y011403D01*
X003886Y011330D01*
X003751Y011195D01*
X003678Y011019D01*
X003678Y011002D01*
X003652Y010976D01*
X003652Y010837D01*
X003599Y010785D01*
X003325Y010785D01*
X003252Y010712D01*
X002813Y010273D01*
X001959Y010273D01*
X001959Y010321D01*
X001909Y010371D01*
X001484Y010371D01*
X001435Y010321D01*
X001435Y009975D01*
X001484Y009925D01*
X001909Y009925D01*
X001959Y009975D01*
X001959Y010023D01*
X002605Y010023D01*
X003459Y009169D01*
X005828Y009169D01*
X006532Y009872D01*
X006532Y011646D01*
X006458Y011719D01*
X006327Y011851D01*
X006253Y011924D01*
X006045Y011924D01*
X006031Y011939D01*
X006110Y011939D01*
X006210Y012039D01*
X006308Y012039D01*
X006782Y012512D01*
X006782Y014179D01*
X006830Y014179D01*
X006962Y014311D01*
X006962Y014497D01*
X006830Y014629D01*
X006643Y014629D01*
X006512Y014497D01*
X006512Y014311D01*
X006532Y014291D01*
X006532Y012616D01*
X006207Y012292D01*
X006140Y012359D01*
X006148Y012359D01*
X006222Y012432D01*
X006422Y012632D01*
X006422Y013592D01*
X006348Y013665D01*
X006204Y013809D01*
X006130Y013809D01*
X006030Y013909D01*
X005888Y013909D01*
X005588Y014209D01*
X002445Y014209D01*
X002372Y014136D01*
X002141Y013905D01*
X001959Y013905D01*
X001959Y013953D01*
X001909Y014003D01*
X001484Y014003D01*
X001435Y013953D01*
X001435Y013607D01*
X001484Y013557D01*
X001909Y013557D01*
X001959Y013607D01*
X001959Y013655D01*
X002244Y013655D01*
X002548Y013959D01*
X005485Y013959D01*
X005712Y013732D01*
X005712Y013591D01*
X005843Y013459D01*
X006030Y013459D01*
X006115Y013545D01*
X006172Y013488D01*
X006172Y012736D01*
X006045Y012609D01*
X005986Y012609D01*
X005985Y012611D01*
X005935Y012609D01*
X005885Y012609D01*
X005883Y012608D01*
X005882Y012608D01*
X005847Y012571D01*
X005812Y012536D01*
X005812Y012534D01*
X005667Y012381D01*
X005632Y012346D01*
X005632Y012344D01*
X005630Y012343D01*
X005632Y012292D01*
X005632Y012045D01*
X005631Y012029D01*
X005562Y012195D01*
X005484Y012274D01*
X005782Y012572D01*
X005782Y013416D01*
X005708Y013489D01*
X005682Y013516D01*
X005682Y013697D01*
X005550Y013829D01*
X005363Y013829D01*
X005232Y013697D01*
X005232Y013667D01*
X005230Y013669D01*
X005043Y013669D01*
X004912Y013537D01*
X004912Y013351D01*
X004919Y013344D01*
X004886Y013330D01*
X004882Y013326D01*
X004882Y013457D01*
X004750Y013589D01*
X004563Y013589D01*
X004350Y013589D01*
X004302Y013637D02*
X005011Y013637D01*
X004963Y013589D02*
X004750Y013589D01*
X004799Y013540D02*
X004914Y013540D01*
X004912Y013492D02*
X004847Y013492D01*
X004882Y013443D02*
X004912Y013443D01*
X004912Y013395D02*
X004882Y013395D01*
X004882Y013346D02*
X004916Y013346D01*
X004563Y013589D02*
X004432Y013457D01*
X004432Y013326D01*
X004428Y013330D01*
X004394Y013344D01*
X004402Y013351D01*
X004402Y013537D01*
X004270Y013669D01*
X004083Y013669D01*
X003952Y013537D01*
X003952Y013357D01*
X003886Y013330D01*
X003762Y013206D01*
X003762Y013217D01*
X003630Y013349D01*
X003443Y013349D01*
X003312Y013217D01*
X003312Y013031D01*
X003412Y012931D01*
X003412Y012849D01*
X003263Y012849D01*
X003132Y012717D01*
X003132Y012609D01*
X002529Y012609D01*
X002529Y012913D01*
X002479Y012963D01*
X001782Y012963D01*
X001782Y013045D01*
X001909Y013045D01*
X001959Y013095D01*
X001959Y013441D01*
X001909Y013491D01*
X001484Y013491D01*
X001435Y013441D01*
X001435Y013095D01*
X001484Y013045D01*
X001532Y013045D01*
X001532Y012963D01*
X000834Y012963D01*
X000830Y012958D01*
X000830Y014964D01*
X008532Y014964D01*
X008532Y009079D01*
X008532Y009127D02*
X000830Y009127D01*
X000830Y009175D02*
X003453Y009175D01*
X003404Y009224D02*
X000830Y009224D01*
X000830Y009272D02*
X003356Y009272D01*
X003307Y009321D02*
X000830Y009321D01*
X000830Y009369D02*
X003259Y009369D01*
X003210Y009418D02*
X000830Y009418D01*
X000830Y009466D02*
X003162Y009466D01*
X003113Y009515D02*
X000830Y009515D01*
X000830Y009563D02*
X003065Y009563D01*
X003016Y009612D02*
X000830Y009612D01*
X000830Y009660D02*
X002968Y009660D01*
X002919Y009709D02*
X000830Y009709D01*
X000830Y009757D02*
X002871Y009757D01*
X002822Y009806D02*
X000830Y009806D01*
X000830Y009854D02*
X002774Y009854D01*
X002725Y009903D02*
X000830Y009903D01*
X000830Y009951D02*
X001459Y009951D01*
X001435Y010000D02*
X000830Y010000D01*
X000830Y010048D02*
X001435Y010048D01*
X001435Y010097D02*
X000830Y010097D01*
X000830Y010145D02*
X001435Y010145D01*
X001435Y010194D02*
X000830Y010194D01*
X000830Y010242D02*
X001435Y010242D01*
X001435Y010291D02*
X000830Y010291D01*
X000830Y010339D02*
X001452Y010339D01*
X001437Y010485D02*
X000830Y010485D01*
X000830Y010533D02*
X001435Y010533D01*
X001435Y010582D02*
X000830Y010582D01*
X000830Y010630D02*
X001435Y010630D01*
X001435Y010679D02*
X000830Y010679D01*
X000830Y010727D02*
X001435Y010727D01*
X001435Y010776D02*
X000830Y010776D01*
X000830Y010824D02*
X001435Y010824D01*
X001474Y010873D02*
X000830Y010873D01*
X000830Y010921D02*
X001532Y010921D01*
X001532Y010970D02*
X000830Y010970D01*
X000830Y010436D02*
X002976Y010436D01*
X002927Y010388D02*
X000830Y010388D01*
X000830Y013007D02*
X001532Y013007D01*
X001475Y013055D02*
X000830Y013055D01*
X000830Y013104D02*
X001435Y013104D01*
X001435Y013152D02*
X000830Y013152D01*
X000830Y013201D02*
X001435Y013201D01*
X001435Y013249D02*
X000830Y013249D01*
X000830Y013298D02*
X001435Y013298D01*
X001435Y013346D02*
X000830Y013346D01*
X000830Y013395D02*
X001435Y013395D01*
X001436Y013443D02*
X000830Y013443D01*
X000830Y013492D02*
X003952Y013492D01*
X003954Y013540D02*
X000830Y013540D01*
X000830Y013589D02*
X001453Y013589D01*
X001435Y013637D02*
X000830Y013637D01*
X000830Y013686D02*
X001435Y013686D01*
X001435Y013734D02*
X000830Y013734D01*
X000830Y013783D02*
X001435Y013783D01*
X001435Y013831D02*
X000830Y013831D01*
X000830Y013880D02*
X001435Y013880D01*
X001435Y013928D02*
X000830Y013928D01*
X000830Y013977D02*
X001458Y013977D01*
X001782Y013007D02*
X003336Y013007D01*
X003312Y013055D02*
X001919Y013055D01*
X001959Y013104D02*
X003312Y013104D01*
X003312Y013152D02*
X001959Y013152D01*
X001959Y013201D02*
X003312Y013201D01*
X003343Y013249D02*
X001959Y013249D01*
X001959Y013298D02*
X003392Y013298D01*
X003440Y013346D02*
X001959Y013346D01*
X001959Y013395D02*
X003952Y013395D01*
X003952Y013443D02*
X001957Y013443D01*
X001940Y013589D02*
X004003Y013589D01*
X004051Y013637D02*
X001959Y013637D01*
X001959Y013928D02*
X002164Y013928D01*
X002212Y013977D02*
X001935Y013977D01*
X002261Y014025D02*
X000830Y014025D01*
X000830Y014074D02*
X002309Y014074D01*
X002358Y014122D02*
X000830Y014122D01*
X000830Y014171D02*
X002406Y014171D01*
X002517Y013928D02*
X005516Y013928D01*
X005564Y013880D02*
X002469Y013880D01*
X002420Y013831D02*
X005613Y013831D01*
X005596Y013783D02*
X005661Y013783D01*
X005645Y013734D02*
X005710Y013734D01*
X005712Y013686D02*
X005682Y013686D01*
X005682Y013637D02*
X005712Y013637D01*
X005714Y013589D02*
X005682Y013589D01*
X005682Y013540D02*
X005762Y013540D01*
X005811Y013492D02*
X005706Y013492D01*
X005754Y013443D02*
X006172Y013443D01*
X006172Y013395D02*
X005782Y013395D01*
X005782Y013346D02*
X006172Y013346D01*
X006172Y013298D02*
X005782Y013298D01*
X005782Y013249D02*
X006172Y013249D01*
X006172Y013201D02*
X005782Y013201D01*
X005782Y013152D02*
X006172Y013152D01*
X006172Y013104D02*
X005782Y013104D01*
X005782Y013055D02*
X006172Y013055D01*
X006172Y013007D02*
X005782Y013007D01*
X005782Y012958D02*
X006172Y012958D01*
X006172Y012910D02*
X005782Y012910D01*
X005782Y012861D02*
X006172Y012861D01*
X006172Y012813D02*
X005782Y012813D01*
X005782Y012764D02*
X006172Y012764D01*
X006151Y012716D02*
X005782Y012716D01*
X005782Y012667D02*
X006103Y012667D01*
X006054Y012619D02*
X005782Y012619D01*
X005779Y012570D02*
X005846Y012570D01*
X005800Y012522D02*
X005731Y012522D01*
X005754Y012473D02*
X005682Y012473D01*
X005708Y012425D02*
X005634Y012425D01*
X005662Y012376D02*
X005585Y012376D01*
X005631Y012328D02*
X005537Y012328D01*
X005488Y012279D02*
X005632Y012279D01*
X005632Y012231D02*
X005527Y012231D01*
X005568Y012182D02*
X005632Y012182D01*
X005632Y012134D02*
X005588Y012134D01*
X005608Y012085D02*
X005632Y012085D01*
X005628Y012037D02*
X005631Y012037D01*
X005635Y011988D02*
X005636Y011988D01*
X005635Y011940D02*
X005684Y011940D01*
X005730Y011891D02*
X005635Y011891D01*
X005635Y011843D02*
X005777Y011843D01*
X005823Y011794D02*
X005621Y011794D01*
X005601Y011746D02*
X005868Y011746D01*
X005916Y011697D02*
X005581Y011697D01*
X005558Y011649D02*
X005723Y011649D01*
X005592Y011517D01*
X005592Y011331D01*
X005723Y011199D01*
X005732Y011199D01*
X005732Y010533D01*
X005319Y010215D01*
X005213Y010259D01*
X005080Y010259D01*
X004957Y010208D01*
X004863Y010114D01*
X004812Y009991D01*
X004812Y009858D01*
X004863Y009734D01*
X004957Y009640D01*
X005080Y009589D01*
X005213Y009589D01*
X005336Y009640D01*
X005431Y009734D01*
X005482Y009858D01*
X005482Y009991D01*
X005471Y010016D01*
X005889Y010339D01*
X005898Y010339D01*
X005908Y010349D01*
X005929Y010370D01*
X005964Y010397D01*
X005965Y010406D01*
X005982Y010422D01*
X005982Y011271D01*
X006042Y011331D01*
X006042Y011517D01*
X005910Y011649D01*
X005723Y011649D01*
X005674Y011600D02*
X005510Y011600D01*
X005461Y011552D02*
X005626Y011552D01*
X005592Y011503D02*
X005391Y011503D01*
X005274Y011455D02*
X005592Y011455D01*
X005592Y011406D02*
X004871Y011406D01*
X004823Y011455D02*
X005039Y011455D01*
X004952Y011358D02*
X004920Y011358D01*
X004922Y011503D02*
X004782Y011503D01*
X004782Y011552D02*
X004852Y011552D01*
X004804Y011600D02*
X004782Y011600D01*
X004712Y011212D02*
X004546Y011212D01*
X004576Y011164D02*
X004738Y011164D01*
X004718Y011115D02*
X004596Y011115D01*
X004616Y011067D02*
X004698Y011067D01*
X004678Y011018D02*
X004635Y011018D01*
X004635Y010970D02*
X004678Y010970D01*
X004678Y010921D02*
X004635Y010921D01*
X004635Y010873D02*
X004678Y010873D01*
X004680Y010824D02*
X004633Y010824D01*
X004613Y010776D02*
X004700Y010776D01*
X004720Y010727D02*
X004593Y010727D01*
X004573Y010679D02*
X004740Y010679D01*
X004774Y010630D02*
X004540Y010630D01*
X004533Y010589D02*
X004402Y010457D01*
X004402Y010316D01*
X004371Y010286D01*
X004300Y010223D01*
X004213Y010259D01*
X004080Y010259D01*
X003957Y010208D01*
X003863Y010114D01*
X003812Y009991D01*
X003812Y009858D01*
X003863Y009734D01*
X003957Y009640D01*
X004080Y009589D01*
X004213Y009589D01*
X004336Y009640D01*
X004431Y009734D01*
X004482Y009858D01*
X004482Y009991D01*
X004464Y010034D01*
X004503Y010069D01*
X004508Y010069D01*
X004542Y010103D01*
X004578Y010134D01*
X004578Y010139D01*
X004578Y010139D01*
X004720Y010139D01*
X004852Y010271D01*
X004852Y010457D01*
X004720Y010589D01*
X004533Y010589D01*
X004526Y010582D02*
X004491Y010582D01*
X004477Y010533D02*
X004443Y010533D01*
X004429Y010485D02*
X004347Y010485D01*
X004402Y010436D02*
X003887Y010436D01*
X003935Y010485D02*
X003967Y010485D01*
X004039Y010242D02*
X003136Y010242D01*
X003184Y010291D02*
X004376Y010291D01*
X004402Y010339D02*
X003233Y010339D01*
X003281Y010388D02*
X004402Y010388D01*
X004321Y010242D02*
X004254Y010242D01*
X004479Y010048D02*
X004835Y010048D01*
X004815Y010000D02*
X004478Y010000D01*
X004482Y009951D02*
X004812Y009951D01*
X004812Y009903D02*
X004482Y009903D01*
X004480Y009854D02*
X004813Y009854D01*
X004833Y009806D02*
X004460Y009806D01*
X004440Y009757D02*
X004853Y009757D01*
X004888Y009709D02*
X004405Y009709D01*
X004356Y009660D02*
X004937Y009660D01*
X005026Y009612D02*
X004268Y009612D01*
X004026Y009612D02*
X003370Y009612D01*
X003322Y009660D02*
X003937Y009660D01*
X003888Y009709D02*
X003273Y009709D01*
X003225Y009757D02*
X003853Y009757D01*
X003833Y009806D02*
X003176Y009806D01*
X003128Y009854D02*
X003813Y009854D01*
X003812Y009903D02*
X003079Y009903D01*
X003031Y009951D02*
X003812Y009951D01*
X003815Y010000D02*
X002982Y010000D01*
X002942Y010048D02*
X003835Y010048D01*
X003856Y010097D02*
X002990Y010097D01*
X003039Y010145D02*
X003894Y010145D01*
X003942Y010194D02*
X003087Y010194D01*
X003024Y010485D02*
X001956Y010485D01*
X001959Y010533D02*
X003073Y010533D01*
X003121Y010582D02*
X001959Y010582D01*
X001959Y010630D02*
X003170Y010630D01*
X003218Y010679D02*
X002999Y010679D01*
X003048Y010727D02*
X003267Y010727D01*
X003315Y010776D02*
X003096Y010776D01*
X003112Y010824D02*
X003638Y010824D01*
X003652Y010873D02*
X003112Y010873D01*
X003112Y010921D02*
X003652Y010921D01*
X003652Y010970D02*
X003112Y010970D01*
X003071Y011018D02*
X003678Y011018D01*
X003698Y011067D02*
X003022Y011067D01*
X003022Y011115D02*
X003718Y011115D01*
X003738Y011164D02*
X003022Y011164D01*
X003022Y011212D02*
X003768Y011212D01*
X003816Y011261D02*
X003022Y011261D01*
X003022Y011309D02*
X003865Y011309D01*
X003952Y011358D02*
X003022Y011358D01*
X003035Y011406D02*
X004111Y011406D01*
X004116Y011405D02*
X004132Y011405D01*
X004132Y011899D01*
X003638Y011899D01*
X003638Y011883D01*
X003651Y011803D01*
X003676Y011725D01*
X003713Y011652D01*
X003761Y011586D01*
X003819Y011529D01*
X003885Y011481D01*
X003958Y011443D01*
X004035Y011418D01*
X004116Y011405D01*
X004132Y011406D02*
X004182Y011406D01*
X004202Y011406D02*
X004532Y011406D01*
X004532Y011455D02*
X004378Y011455D01*
X004460Y011503D02*
X004532Y011503D01*
X004532Y011552D02*
X004518Y011552D01*
X004566Y011358D02*
X004361Y011358D01*
X004449Y011309D02*
X004615Y011309D01*
X004663Y011261D02*
X004497Y011261D01*
X004182Y011455D02*
X004132Y011455D01*
X004132Y011503D02*
X004182Y011503D01*
X004182Y011552D02*
X004132Y011552D01*
X004132Y011600D02*
X004182Y011600D01*
X004182Y011649D02*
X004132Y011649D01*
X004132Y011697D02*
X004182Y011697D01*
X004182Y011746D02*
X004132Y011746D01*
X004132Y011794D02*
X004182Y011794D01*
X004182Y011843D02*
X004132Y011843D01*
X004132Y011891D02*
X004182Y011891D01*
X004182Y011940D02*
X004532Y011940D01*
X004532Y012328D02*
X004484Y012328D01*
X004532Y012376D02*
X004412Y012376D01*
X004295Y012425D02*
X004532Y012425D01*
X004532Y012473D02*
X004319Y012473D01*
X004431Y012522D02*
X004532Y012522D01*
X004532Y012570D02*
X004480Y012570D01*
X004528Y012619D02*
X004532Y012619D01*
X004432Y013346D02*
X004397Y013346D01*
X004402Y013395D02*
X004432Y013395D01*
X004432Y013443D02*
X004402Y013443D01*
X004402Y013492D02*
X004466Y013492D01*
X004514Y013540D02*
X004399Y013540D01*
X004182Y012425D02*
X004132Y012425D01*
X004132Y012376D02*
X004182Y012376D01*
X004182Y012328D02*
X004132Y012328D01*
X004132Y012279D02*
X004182Y012279D01*
X004182Y012231D02*
X004132Y012231D01*
X004132Y012182D02*
X004182Y012182D01*
X004182Y012134D02*
X004132Y012134D01*
X004132Y012085D02*
X004182Y012085D01*
X004182Y012037D02*
X004132Y012037D01*
X004132Y011988D02*
X004182Y011988D01*
X004132Y011940D02*
X003569Y011940D01*
X003617Y011988D02*
X003642Y011988D01*
X003638Y011891D02*
X003520Y011891D01*
X003472Y011843D02*
X003644Y011843D01*
X003654Y011794D02*
X003423Y011794D01*
X003375Y011746D02*
X003669Y011746D01*
X003690Y011697D02*
X003326Y011697D01*
X003278Y011649D02*
X003716Y011649D01*
X003751Y011600D02*
X003229Y011600D01*
X003181Y011552D02*
X003796Y011552D01*
X003854Y011503D02*
X003132Y011503D01*
X003084Y011455D02*
X003936Y011455D01*
X003778Y012279D02*
X003742Y012279D01*
X003742Y012328D02*
X003830Y012328D01*
X003901Y012376D02*
X003742Y012376D01*
X003742Y012425D02*
X004019Y012425D01*
X003995Y012473D02*
X003742Y012473D01*
X003742Y012522D02*
X003882Y012522D01*
X003834Y012570D02*
X003742Y012570D01*
X003742Y012619D02*
X003785Y012619D01*
X003745Y012667D02*
X003742Y012667D01*
X003730Y013249D02*
X003805Y013249D01*
X003853Y013298D02*
X003681Y013298D01*
X003633Y013346D02*
X003925Y013346D01*
X003384Y012958D02*
X002484Y012958D01*
X002529Y012910D02*
X003412Y012910D01*
X003412Y012861D02*
X002529Y012861D01*
X002529Y012813D02*
X003227Y012813D01*
X003178Y012764D02*
X002529Y012764D01*
X002529Y012716D02*
X003132Y012716D01*
X003132Y012667D02*
X002529Y012667D01*
X002529Y012619D02*
X003132Y012619D01*
X003197Y012085D02*
X002834Y012085D01*
X002786Y012037D02*
X003246Y012037D01*
X003264Y011988D02*
X002737Y011988D01*
X002689Y011940D02*
X003215Y011940D01*
X003167Y011891D02*
X002640Y011891D01*
X002592Y011843D02*
X003118Y011843D01*
X003070Y011794D02*
X002543Y011794D01*
X002529Y011746D02*
X003021Y011746D01*
X002973Y011697D02*
X002529Y011697D01*
X002529Y011649D02*
X002924Y011649D01*
X002876Y011600D02*
X002529Y011600D01*
X002529Y011552D02*
X002827Y011552D01*
X002845Y011569D02*
X002845Y011569D01*
X002779Y011503D02*
X002529Y011503D01*
X002529Y011455D02*
X002772Y011455D01*
X002772Y011406D02*
X002529Y011406D01*
X002529Y011358D02*
X002772Y011358D01*
X002772Y011309D02*
X002529Y011309D01*
X002529Y011261D02*
X002772Y011261D01*
X002772Y011212D02*
X002529Y011212D01*
X002529Y011164D02*
X002772Y011164D01*
X002772Y011115D02*
X002529Y011115D01*
X002529Y011067D02*
X002751Y011067D01*
X002702Y011018D02*
X002492Y011018D01*
X002662Y010970D02*
X001782Y010970D01*
X001782Y010921D02*
X002662Y010921D01*
X002662Y010873D02*
X001919Y010873D01*
X001959Y010824D02*
X002662Y010824D01*
X002677Y010776D02*
X001959Y010776D01*
X001959Y010727D02*
X002725Y010727D01*
X002774Y010679D02*
X001959Y010679D01*
X001941Y010339D02*
X002879Y010339D01*
X002830Y010291D02*
X001959Y010291D01*
X001959Y010000D02*
X002628Y010000D01*
X002677Y009951D02*
X001935Y009951D01*
X002275Y013686D02*
X005232Y013686D01*
X005268Y013734D02*
X002323Y013734D01*
X002372Y013783D02*
X005317Y013783D01*
X005627Y014171D02*
X006532Y014171D01*
X006532Y014219D02*
X000830Y014219D01*
X000830Y014268D02*
X006532Y014268D01*
X006512Y014316D02*
X000830Y014316D01*
X000830Y014365D02*
X006512Y014365D01*
X006512Y014413D02*
X000830Y014413D01*
X000830Y014462D02*
X006512Y014462D01*
X006524Y014510D02*
X000830Y014510D01*
X000830Y014559D02*
X006573Y014559D01*
X006621Y014607D02*
X000830Y014607D01*
X000830Y014656D02*
X008532Y014656D01*
X008532Y014704D02*
X000830Y014704D01*
X000830Y014753D02*
X008532Y014753D01*
X008532Y014801D02*
X000830Y014801D01*
X000830Y014850D02*
X008532Y014850D01*
X008532Y014898D02*
X000830Y014898D01*
X000830Y014947D02*
X008532Y014947D01*
X008532Y014607D02*
X006852Y014607D01*
X006900Y014559D02*
X008532Y014559D01*
X008532Y014510D02*
X006949Y014510D01*
X006962Y014462D02*
X008532Y014462D01*
X008532Y014413D02*
X006962Y014413D01*
X006962Y014365D02*
X008532Y014365D01*
X008532Y014316D02*
X006962Y014316D01*
X006918Y014268D02*
X008532Y014268D01*
X008532Y014219D02*
X006870Y014219D01*
X006782Y014171D02*
X008532Y014171D01*
X008532Y014122D02*
X006782Y014122D01*
X006782Y014074D02*
X008532Y014074D01*
X008532Y014025D02*
X006782Y014025D01*
X006782Y013977D02*
X008532Y013977D01*
X008532Y013928D02*
X006782Y013928D01*
X006782Y013880D02*
X008532Y013880D01*
X008532Y013831D02*
X006782Y013831D01*
X006782Y013783D02*
X008532Y013783D01*
X008532Y013734D02*
X006782Y013734D01*
X006782Y013686D02*
X008532Y013686D01*
X008532Y013637D02*
X006782Y013637D01*
X006782Y013589D02*
X008532Y013589D01*
X008532Y013540D02*
X006782Y013540D01*
X006782Y013492D02*
X008532Y013492D01*
X008532Y013443D02*
X006782Y013443D01*
X006782Y013395D02*
X008532Y013395D01*
X008532Y013346D02*
X006782Y013346D01*
X006782Y013298D02*
X008532Y013298D01*
X008532Y013249D02*
X006782Y013249D01*
X006782Y013201D02*
X008532Y013201D01*
X008532Y013152D02*
X006782Y013152D01*
X006782Y013104D02*
X008532Y013104D01*
X008532Y013055D02*
X006782Y013055D01*
X006782Y013007D02*
X008532Y013007D01*
X008532Y012958D02*
X006782Y012958D01*
X006782Y012910D02*
X008532Y012910D01*
X008532Y012861D02*
X006782Y012861D01*
X006782Y012813D02*
X008532Y012813D01*
X008532Y012764D02*
X006782Y012764D01*
X006782Y012716D02*
X008532Y012716D01*
X008532Y012667D02*
X006782Y012667D01*
X006782Y012619D02*
X008532Y012619D01*
X008532Y012570D02*
X006782Y012570D01*
X006782Y012522D02*
X008532Y012522D01*
X008532Y012473D02*
X006742Y012473D01*
X006694Y012425D02*
X008532Y012425D01*
X008532Y012376D02*
X006645Y012376D01*
X006597Y012328D02*
X008532Y012328D01*
X008532Y012279D02*
X006548Y012279D01*
X006500Y012231D02*
X008532Y012231D01*
X008532Y012182D02*
X006451Y012182D01*
X006403Y012134D02*
X008532Y012134D01*
X008532Y012085D02*
X006354Y012085D01*
X006286Y011891D02*
X008532Y011891D01*
X008532Y011843D02*
X006335Y011843D01*
X006383Y011794D02*
X008532Y011794D01*
X008532Y011746D02*
X006432Y011746D01*
X006480Y011697D02*
X008532Y011697D01*
X008532Y011649D02*
X006529Y011649D01*
X006532Y011600D02*
X008532Y011600D01*
X008532Y011552D02*
X006532Y011552D01*
X006532Y011503D02*
X008532Y011503D01*
X008532Y011455D02*
X006532Y011455D01*
X006532Y011406D02*
X008067Y011406D01*
X008070Y011409D02*
X008154Y011409D01*
X008195Y011451D01*
X008278Y011451D01*
X008320Y011409D01*
X008403Y011409D01*
X008404Y011408D01*
X008462Y011350D01*
X008462Y011268D01*
X008461Y011266D01*
X008403Y011209D01*
X008403Y011209D01*
X008337Y011142D01*
X008337Y011142D01*
X008304Y011109D01*
X008403Y011109D01*
X008462Y011051D01*
X008462Y010968D01*
X008419Y010926D01*
X008422Y010925D01*
X008468Y010856D01*
X008452Y010775D01*
X008305Y010677D01*
X008362Y010677D01*
X008393Y010646D01*
X008420Y010619D01*
X008420Y010619D01*
X008462Y010577D01*
X008462Y010411D01*
X008403Y010352D01*
X008387Y010336D01*
X008403Y010336D01*
X008462Y010277D01*
X008462Y010195D01*
X008419Y010152D01*
X008422Y010152D01*
X008468Y010083D01*
X008452Y010001D01*
X008305Y009904D01*
X008362Y009904D01*
X008396Y009870D01*
X008420Y009845D01*
X008420Y009845D01*
X008428Y009837D01*
X008462Y009803D01*
X008462Y009637D01*
X008416Y009591D01*
X008420Y009587D01*
X008420Y009587D01*
X008428Y009580D01*
X008462Y009546D01*
X008462Y009379D01*
X008362Y009279D01*
X008279Y009279D01*
X008220Y009338D01*
X008220Y009346D01*
X008153Y009279D01*
X008070Y009279D01*
X008012Y009338D01*
X008012Y009587D01*
X008016Y009591D01*
X008012Y009596D01*
X008012Y009845D01*
X008019Y009853D01*
X008005Y009874D01*
X008022Y009955D01*
X008209Y010080D01*
X008195Y010095D01*
X008153Y010053D01*
X008070Y010053D01*
X008012Y010111D01*
X008012Y010361D01*
X008037Y010386D01*
X008012Y010411D01*
X008012Y010577D01*
X008036Y010601D01*
X008005Y010647D01*
X008022Y010728D01*
X008209Y010854D01*
X008195Y010868D01*
X008153Y010826D01*
X008070Y010826D01*
X008012Y010885D01*
X008012Y011134D01*
X008070Y011193D01*
X008137Y011193D01*
X008137Y011209D01*
X008070Y011209D01*
X008012Y011268D01*
X008012Y011350D01*
X008070Y011409D01*
X008019Y011358D02*
X006532Y011358D01*
X006532Y011309D02*
X008012Y011309D01*
X008019Y011261D02*
X006532Y011261D01*
X006532Y011212D02*
X008067Y011212D01*
X008041Y011164D02*
X006532Y011164D01*
X006532Y011115D02*
X008012Y011115D01*
X008012Y011067D02*
X006532Y011067D01*
X006532Y011018D02*
X008012Y011018D01*
X008012Y010970D02*
X006532Y010970D01*
X006532Y010921D02*
X008012Y010921D01*
X008024Y010873D02*
X006532Y010873D01*
X006532Y010824D02*
X008165Y010824D01*
X008093Y010776D02*
X006532Y010776D01*
X006532Y010727D02*
X008021Y010727D01*
X008012Y010679D02*
X006532Y010679D01*
X006532Y010630D02*
X008017Y010630D01*
X008016Y010582D02*
X006532Y010582D01*
X006532Y010533D02*
X008012Y010533D01*
X008012Y010485D02*
X006532Y010485D01*
X006532Y010436D02*
X008012Y010436D01*
X008035Y010388D02*
X006532Y010388D01*
X006532Y010339D02*
X008012Y010339D01*
X008012Y010291D02*
X006532Y010291D01*
X006532Y010242D02*
X007524Y010242D01*
X007550Y010268D02*
X007492Y010210D01*
X007492Y009960D01*
X007494Y009958D01*
X007492Y009956D01*
X007492Y009831D01*
X007496Y009827D01*
X007492Y009823D01*
X007492Y009573D01*
X007537Y009527D01*
X007492Y009482D01*
X007492Y009399D01*
X007550Y009340D01*
X007634Y009257D01*
X007716Y009257D01*
X007883Y009257D01*
X007942Y009315D01*
X007942Y009398D01*
X007900Y009440D01*
X007942Y009482D01*
X007942Y009565D01*
X007896Y009611D01*
X007942Y009657D01*
X007942Y009739D01*
X007883Y009798D01*
X007700Y009798D01*
X007733Y009831D01*
X007733Y009901D01*
X007800Y009901D01*
X007883Y009985D01*
X007942Y010043D01*
X007942Y010126D01*
X007883Y010185D01*
X007692Y010185D01*
X007692Y010210D01*
X007633Y010268D01*
X007550Y010268D01*
X007492Y010194D02*
X006532Y010194D01*
X006532Y010145D02*
X007492Y010145D01*
X007492Y010097D02*
X006532Y010097D01*
X006532Y010048D02*
X007492Y010048D01*
X007492Y010000D02*
X006532Y010000D01*
X006532Y009951D02*
X007492Y009951D01*
X007492Y009903D02*
X006532Y009903D01*
X006513Y009854D02*
X007492Y009854D01*
X007492Y009806D02*
X006465Y009806D01*
X006416Y009757D02*
X007492Y009757D01*
X007492Y009709D02*
X006368Y009709D01*
X006319Y009660D02*
X007492Y009660D01*
X007492Y009612D02*
X006271Y009612D01*
X006222Y009563D02*
X007502Y009563D01*
X007525Y009515D02*
X006174Y009515D01*
X006125Y009466D02*
X007492Y009466D01*
X007492Y009418D02*
X006077Y009418D01*
X006028Y009369D02*
X007521Y009369D01*
X007570Y009321D02*
X005980Y009321D01*
X005931Y009272D02*
X007618Y009272D01*
X007708Y009806D02*
X008012Y009806D01*
X008019Y009854D02*
X007733Y009854D01*
X007801Y009903D02*
X008011Y009903D01*
X008021Y009951D02*
X007850Y009951D01*
X007898Y010000D02*
X008089Y010000D01*
X008161Y010048D02*
X007942Y010048D01*
X007942Y010097D02*
X008026Y010097D01*
X008012Y010145D02*
X007923Y010145D01*
X008012Y010194D02*
X007692Y010194D01*
X007659Y010242D02*
X008012Y010242D01*
X008012Y009757D02*
X007924Y009757D01*
X007942Y009709D02*
X008012Y009709D01*
X008012Y009660D02*
X007942Y009660D01*
X007897Y009612D02*
X008012Y009612D01*
X008012Y009563D02*
X007942Y009563D01*
X007942Y009515D02*
X008012Y009515D01*
X008012Y009466D02*
X007926Y009466D01*
X007922Y009418D02*
X008012Y009418D01*
X008012Y009369D02*
X007942Y009369D01*
X007942Y009321D02*
X008029Y009321D01*
X007899Y009272D02*
X008532Y009272D01*
X008532Y009224D02*
X005883Y009224D01*
X005834Y009175D02*
X008532Y009175D01*
X008532Y009321D02*
X008403Y009321D01*
X008452Y009369D02*
X008532Y009369D01*
X008532Y009418D02*
X008462Y009418D01*
X008462Y009466D02*
X008532Y009466D01*
X008532Y009515D02*
X008462Y009515D01*
X008444Y009563D02*
X008532Y009563D01*
X008532Y009612D02*
X008436Y009612D01*
X008462Y009660D02*
X008532Y009660D01*
X008532Y009709D02*
X008462Y009709D01*
X008462Y009757D02*
X008532Y009757D01*
X008532Y009806D02*
X008460Y009806D01*
X008411Y009854D02*
X008532Y009854D01*
X008532Y009903D02*
X008363Y009903D01*
X008376Y009951D02*
X008532Y009951D01*
X008532Y010000D02*
X008449Y010000D01*
X008461Y010048D02*
X008532Y010048D01*
X008532Y010097D02*
X008459Y010097D01*
X008426Y010145D02*
X008532Y010145D01*
X008532Y010194D02*
X008461Y010194D01*
X008462Y010242D02*
X008532Y010242D01*
X008532Y010291D02*
X008449Y010291D01*
X008390Y010339D02*
X008532Y010339D01*
X008532Y010388D02*
X008439Y010388D01*
X008462Y010436D02*
X008532Y010436D01*
X008532Y010485D02*
X008462Y010485D01*
X008462Y010533D02*
X008532Y010533D01*
X008532Y010582D02*
X008457Y010582D01*
X008409Y010630D02*
X008532Y010630D01*
X008532Y010679D02*
X008308Y010679D01*
X008380Y010727D02*
X008532Y010727D01*
X008532Y010776D02*
X008452Y010776D01*
X008462Y010824D02*
X008532Y010824D01*
X008532Y010873D02*
X008457Y010873D01*
X008425Y010921D02*
X008532Y010921D01*
X008532Y010970D02*
X008462Y010970D01*
X008462Y011018D02*
X008532Y011018D01*
X008532Y011067D02*
X008446Y011067D01*
X008532Y011115D02*
X008309Y011115D01*
X008358Y011164D02*
X008532Y011164D01*
X008532Y011212D02*
X008406Y011212D01*
X008455Y011261D02*
X008532Y011261D01*
X008532Y011309D02*
X008462Y011309D01*
X008455Y011358D02*
X008532Y011358D01*
X008532Y011406D02*
X008406Y011406D01*
X008532Y011940D02*
X006110Y011940D01*
X006159Y011988D02*
X008532Y011988D01*
X008532Y012037D02*
X006207Y012037D01*
X006171Y012328D02*
X006243Y012328D01*
X006292Y012376D02*
X006165Y012376D01*
X006214Y012425D02*
X006340Y012425D01*
X006389Y012473D02*
X006262Y012473D01*
X006311Y012522D02*
X006437Y012522D01*
X006486Y012570D02*
X006359Y012570D01*
X006408Y012619D02*
X006532Y012619D01*
X006532Y012667D02*
X006422Y012667D01*
X006422Y012716D02*
X006532Y012716D01*
X006532Y012764D02*
X006422Y012764D01*
X006422Y012813D02*
X006532Y012813D01*
X006532Y012861D02*
X006422Y012861D01*
X006422Y012910D02*
X006532Y012910D01*
X006532Y012958D02*
X006422Y012958D01*
X006422Y013007D02*
X006532Y013007D01*
X006532Y013055D02*
X006422Y013055D01*
X006422Y013104D02*
X006532Y013104D01*
X006532Y013152D02*
X006422Y013152D01*
X006422Y013201D02*
X006532Y013201D01*
X006532Y013249D02*
X006422Y013249D01*
X006422Y013298D02*
X006532Y013298D01*
X006532Y013346D02*
X006422Y013346D01*
X006422Y013395D02*
X006532Y013395D01*
X006532Y013443D02*
X006422Y013443D01*
X006422Y013492D02*
X006532Y013492D01*
X006532Y013540D02*
X006422Y013540D01*
X006422Y013589D02*
X006532Y013589D01*
X006532Y013637D02*
X006376Y013637D01*
X006328Y013686D02*
X006532Y013686D01*
X006532Y013734D02*
X006279Y013734D01*
X006231Y013783D02*
X006532Y013783D01*
X006532Y013831D02*
X006108Y013831D01*
X006059Y013880D02*
X006532Y013880D01*
X006532Y013928D02*
X005869Y013928D01*
X005821Y013977D02*
X006532Y013977D01*
X006532Y014025D02*
X005772Y014025D01*
X005724Y014074D02*
X006532Y014074D01*
X006532Y014122D02*
X005675Y014122D01*
X006111Y013540D02*
X006120Y013540D01*
X006168Y013492D02*
X006062Y013492D01*
X006175Y011649D02*
X005910Y011649D01*
X005959Y011600D02*
X006224Y011600D01*
X006272Y011552D02*
X006007Y011552D01*
X006042Y011503D02*
X006282Y011503D01*
X006282Y011455D02*
X006042Y011455D01*
X006042Y011406D02*
X006282Y011406D01*
X006282Y011358D02*
X006042Y011358D01*
X006020Y011309D02*
X006282Y011309D01*
X006282Y011261D02*
X005982Y011261D01*
X005982Y011212D02*
X006282Y011212D01*
X006282Y011164D02*
X005982Y011164D01*
X005982Y011115D02*
X006282Y011115D01*
X006282Y011067D02*
X005982Y011067D01*
X005982Y011018D02*
X006282Y011018D01*
X006282Y010970D02*
X005982Y010970D01*
X005982Y010921D02*
X006282Y010921D01*
X006282Y010873D02*
X005982Y010873D01*
X005982Y010824D02*
X006282Y010824D01*
X006282Y010776D02*
X005982Y010776D01*
X005982Y010727D02*
X006282Y010727D01*
X006282Y010679D02*
X005982Y010679D01*
X005982Y010630D02*
X006282Y010630D01*
X006282Y010582D02*
X005982Y010582D01*
X005982Y010533D02*
X006282Y010533D01*
X006282Y010485D02*
X005982Y010485D01*
X005982Y010436D02*
X006282Y010436D01*
X006282Y010388D02*
X005952Y010388D01*
X005898Y010339D02*
X006282Y010339D01*
X006282Y010291D02*
X005826Y010291D01*
X005764Y010242D02*
X006282Y010242D01*
X006282Y010194D02*
X005701Y010194D01*
X005638Y010145D02*
X006282Y010145D01*
X006282Y010097D02*
X005575Y010097D01*
X005512Y010048D02*
X006282Y010048D01*
X006282Y010000D02*
X005478Y010000D01*
X005482Y009951D02*
X006257Y009951D01*
X006208Y009903D02*
X005482Y009903D01*
X005480Y009854D02*
X006160Y009854D01*
X006111Y009806D02*
X005460Y009806D01*
X005440Y009757D02*
X006063Y009757D01*
X006014Y009709D02*
X005405Y009709D01*
X005356Y009660D02*
X005966Y009660D01*
X005917Y009612D02*
X005268Y009612D01*
X005254Y010242D02*
X005354Y010242D01*
X005417Y010291D02*
X004852Y010291D01*
X004852Y010339D02*
X005480Y010339D01*
X005543Y010388D02*
X004852Y010388D01*
X004852Y010436D02*
X005606Y010436D01*
X005669Y010485D02*
X005347Y010485D01*
X005443Y010533D02*
X005731Y010533D01*
X005732Y010582D02*
X005491Y010582D01*
X005540Y010630D02*
X005732Y010630D01*
X005732Y010679D02*
X005573Y010679D01*
X005593Y010727D02*
X005732Y010727D01*
X005732Y010776D02*
X005613Y010776D01*
X005633Y010824D02*
X005732Y010824D01*
X005732Y010873D02*
X005635Y010873D01*
X005635Y010921D02*
X005732Y010921D01*
X005732Y010970D02*
X005635Y010970D01*
X005635Y011018D02*
X005732Y011018D01*
X005732Y011067D02*
X005616Y011067D01*
X005596Y011115D02*
X005732Y011115D01*
X005732Y011164D02*
X005576Y011164D01*
X005546Y011212D02*
X005710Y011212D01*
X005662Y011261D02*
X005497Y011261D01*
X005449Y011309D02*
X005613Y011309D01*
X005592Y011358D02*
X005361Y011358D01*
X004967Y010485D02*
X004824Y010485D01*
X004776Y010533D02*
X004871Y010533D01*
X004822Y010582D02*
X004727Y010582D01*
X004823Y010242D02*
X005039Y010242D01*
X004942Y010194D02*
X004774Y010194D01*
X004726Y010145D02*
X004894Y010145D01*
X004856Y010097D02*
X004536Y010097D01*
X003666Y010436D02*
X003330Y010436D01*
X003378Y010485D02*
X003618Y010485D01*
X003569Y010533D02*
X003427Y010533D01*
X003419Y009563D02*
X005869Y009563D01*
X005820Y009515D02*
X003467Y009515D01*
X003516Y009466D02*
X005772Y009466D01*
X008195Y009321D02*
X008237Y009321D01*
D20*
X008215Y015884D02*
X008317Y015985D01*
X008317Y016164D01*
X007857Y016164D01*
X007857Y016204D01*
X008317Y016204D01*
X008317Y016383D01*
X008035Y016664D01*
X007857Y016664D01*
X007857Y016204D01*
X007817Y016204D01*
X007817Y016664D01*
X007638Y016664D01*
X007357Y016383D01*
X007357Y016204D01*
X007817Y016204D01*
X007817Y016164D01*
X007357Y016164D01*
X007357Y015985D01*
X007458Y015884D01*
X007215Y015884D01*
X007317Y015985D01*
X007317Y016164D01*
X006857Y016164D01*
X006857Y016204D01*
X007317Y016204D01*
X007317Y016383D01*
X007035Y016664D01*
X006857Y016664D01*
X006857Y016204D01*
X006817Y016204D01*
X006817Y016664D01*
X006638Y016664D01*
X006357Y016383D01*
X006357Y016204D01*
X006817Y016204D01*
X006817Y016164D01*
X006357Y016164D01*
X006357Y015985D01*
X006458Y015884D01*
X005035Y015884D01*
X005293Y015991D01*
X005510Y016208D01*
X005627Y016491D01*
X005627Y016797D01*
X005510Y017081D01*
X005293Y017297D01*
X005010Y017415D01*
X004703Y017415D01*
X004420Y017297D01*
X004203Y017081D01*
X004086Y016797D01*
X004086Y016491D01*
X004203Y016208D01*
X004420Y015991D01*
X004678Y015884D01*
X002895Y015884D01*
X002997Y015985D01*
X002997Y016164D01*
X002537Y016164D01*
X002537Y016204D01*
X002997Y016204D01*
X002997Y016383D01*
X002715Y016664D01*
X002537Y016664D01*
X002537Y016204D01*
X002497Y016204D01*
X002497Y016664D01*
X002318Y016664D01*
X002037Y016383D01*
X002037Y016204D01*
X002497Y016204D01*
X002497Y016164D01*
X002037Y016164D01*
X002037Y015985D01*
X002138Y015884D01*
X001895Y015884D01*
X001997Y015985D01*
X001997Y016164D01*
X001537Y016164D01*
X001537Y016204D01*
X001997Y016204D01*
X001997Y016383D01*
X001715Y016664D01*
X001537Y016664D01*
X001537Y016204D01*
X001497Y016204D01*
X001497Y016664D01*
X001318Y016664D01*
X001037Y016383D01*
X001037Y016204D01*
X001497Y016204D01*
X001497Y016164D01*
X001037Y016164D01*
X001037Y015985D01*
X001138Y015884D01*
X000885Y015884D01*
X000885Y027904D01*
X001318Y027904D01*
X001077Y027663D01*
X001077Y027484D01*
X001537Y027484D01*
X001537Y027444D01*
X001577Y027444D01*
X001577Y027484D01*
X002037Y027484D01*
X002037Y027663D01*
X001795Y027904D01*
X002318Y027904D01*
X002077Y027663D01*
X002077Y027484D01*
X002537Y027484D01*
X002537Y027444D01*
X002577Y027444D01*
X002577Y027484D01*
X003037Y027484D01*
X003037Y027663D01*
X002795Y027904D01*
X008477Y027904D01*
X008477Y015884D01*
X008215Y015884D01*
X008317Y016017D02*
X008477Y016017D01*
X008477Y016175D02*
X007857Y016175D01*
X007817Y016175D02*
X006857Y016175D01*
X006817Y016175D02*
X005477Y016175D01*
X005562Y016334D02*
X006357Y016334D01*
X006466Y016492D02*
X005627Y016492D01*
X005627Y016651D02*
X006624Y016651D01*
X006638Y016704D02*
X006357Y016985D01*
X006357Y017164D01*
X006817Y017164D01*
X006857Y017164D01*
X006857Y017204D01*
X007317Y017204D01*
X007317Y017383D01*
X007035Y017664D01*
X006857Y017664D01*
X006857Y017204D01*
X006817Y017204D01*
X006817Y017664D01*
X006638Y017664D01*
X006357Y017383D01*
X006357Y017204D01*
X006817Y017204D01*
X006817Y017164D01*
X006817Y016704D01*
X006638Y016704D01*
X006533Y016809D02*
X005622Y016809D01*
X005557Y016968D02*
X006374Y016968D01*
X006357Y017126D02*
X005464Y017126D01*
X005306Y017285D02*
X006357Y017285D01*
X006417Y017443D02*
X002936Y017443D01*
X002997Y017383D02*
X002997Y017204D01*
X002537Y017204D01*
X002537Y017164D01*
X002997Y017164D01*
X002997Y016985D01*
X002715Y016704D01*
X002537Y016704D01*
X002537Y017164D01*
X002497Y017164D01*
X002497Y016704D01*
X002318Y016704D01*
X002037Y016985D01*
X002037Y017164D01*
X002497Y017164D01*
X002497Y017204D01*
X002497Y017664D01*
X002318Y017664D01*
X002037Y017383D01*
X002037Y017204D01*
X002497Y017204D01*
X002537Y017204D01*
X002537Y017664D01*
X002715Y017664D01*
X002997Y017383D01*
X002997Y017285D02*
X004407Y017285D01*
X004249Y017126D02*
X002997Y017126D01*
X002979Y016968D02*
X004157Y016968D01*
X004091Y016809D02*
X002820Y016809D01*
X002729Y016651D02*
X004086Y016651D01*
X004086Y016492D02*
X002887Y016492D01*
X002997Y016334D02*
X004151Y016334D01*
X004236Y016175D02*
X002537Y016175D01*
X002497Y016175D02*
X001537Y016175D01*
X001497Y016175D02*
X000885Y016175D01*
X000885Y016017D02*
X001037Y016017D01*
X001037Y016334D02*
X000885Y016334D01*
X000885Y016492D02*
X001146Y016492D01*
X001213Y016809D02*
X000885Y016809D01*
X000885Y016651D02*
X001304Y016651D01*
X001318Y016704D02*
X001037Y016985D01*
X001037Y017164D01*
X001497Y017164D01*
X001537Y017164D01*
X001537Y017204D01*
X001997Y017204D01*
X001997Y017383D01*
X001715Y017664D01*
X001537Y017664D01*
X001537Y017204D01*
X001497Y017204D01*
X001497Y017664D01*
X001318Y017664D01*
X001037Y017383D01*
X001037Y017204D01*
X001497Y017204D01*
X001497Y017164D01*
X001497Y016704D01*
X001318Y016704D01*
X001497Y016651D02*
X001537Y016651D01*
X001537Y016704D02*
X001715Y016704D01*
X001997Y016985D01*
X001997Y017164D01*
X001537Y017164D01*
X001537Y016704D01*
X001537Y016809D02*
X001497Y016809D01*
X001497Y016968D02*
X001537Y016968D01*
X001537Y017126D02*
X001497Y017126D01*
X001497Y017285D02*
X001537Y017285D01*
X001537Y017443D02*
X001497Y017443D01*
X001497Y017602D02*
X001537Y017602D01*
X001778Y017602D02*
X002255Y017602D01*
X002097Y017443D02*
X001936Y017443D01*
X001997Y017285D02*
X002037Y017285D01*
X002037Y017126D02*
X001997Y017126D01*
X001979Y016968D02*
X002054Y016968D01*
X002146Y016492D02*
X001887Y016492D01*
X001729Y016651D02*
X002304Y016651D01*
X002213Y016809D02*
X001820Y016809D01*
X001997Y016334D02*
X002037Y016334D01*
X002037Y016017D02*
X001997Y016017D01*
X001537Y016334D02*
X001497Y016334D01*
X001497Y016492D02*
X001537Y016492D01*
X001255Y017602D02*
X000885Y017602D01*
X000885Y017760D02*
X004105Y017760D01*
X004111Y017754D02*
X004297Y017754D01*
X004297Y018274D01*
X004397Y018274D01*
X004397Y017754D01*
X004583Y017754D01*
X004875Y018047D01*
X005127Y017794D01*
X005566Y017794D01*
X005847Y018075D01*
X006127Y017794D01*
X006566Y017794D01*
X006876Y018105D01*
X006876Y018544D01*
X006596Y018824D01*
X006876Y019105D01*
X006876Y019544D01*
X006566Y019854D01*
X006127Y019854D01*
X005847Y019573D01*
X005566Y019854D01*
X005127Y019854D01*
X004847Y019573D01*
X004566Y019854D01*
X004127Y019854D01*
X004037Y019763D01*
X004037Y022499D01*
X004258Y022764D01*
X004312Y022764D01*
X004415Y022807D01*
X004494Y022886D01*
X004537Y022988D01*
X004537Y023100D01*
X004494Y023203D01*
X004415Y023282D01*
X004312Y023324D01*
X004201Y023324D01*
X004098Y023282D01*
X004019Y023203D01*
X003977Y023100D01*
X003977Y022989D01*
X003724Y022686D01*
X003677Y022639D01*
X003677Y022629D01*
X003671Y022622D01*
X003677Y022556D01*
X003677Y019743D01*
X003566Y019854D01*
X003127Y019854D01*
X002817Y019544D01*
X002817Y019105D01*
X003097Y018824D01*
X002817Y018544D01*
X002817Y018105D01*
X003127Y017794D01*
X003566Y017794D01*
X003818Y018047D01*
X004111Y017754D01*
X004297Y017760D02*
X004397Y017760D01*
X004397Y017919D02*
X004297Y017919D01*
X004297Y018077D02*
X004397Y018077D01*
X004397Y018236D02*
X004297Y018236D01*
X003946Y017919D02*
X003690Y017919D01*
X003677Y019821D02*
X003599Y019821D01*
X003677Y019979D02*
X002208Y019979D01*
X002333Y020031D02*
X002550Y020248D01*
X002667Y020531D01*
X002667Y020837D01*
X002550Y021121D01*
X002333Y021337D01*
X002050Y021455D01*
X001743Y021455D01*
X001460Y021337D01*
X001243Y021121D01*
X001126Y020837D01*
X001126Y020531D01*
X001243Y020248D01*
X001460Y020031D01*
X001743Y019914D01*
X002050Y019914D01*
X002333Y020031D01*
X002440Y020138D02*
X003677Y020138D01*
X003677Y020296D02*
X002570Y020296D01*
X002636Y020455D02*
X003677Y020455D01*
X003677Y020613D02*
X002667Y020613D01*
X002667Y020772D02*
X003677Y020772D01*
X003677Y020930D02*
X002629Y020930D01*
X002563Y021089D02*
X003677Y021089D01*
X003677Y021247D02*
X002423Y021247D01*
X002168Y021406D02*
X003677Y021406D01*
X003677Y021564D02*
X000885Y021564D01*
X000885Y021406D02*
X001625Y021406D01*
X001370Y021247D02*
X000885Y021247D01*
X000885Y021089D02*
X001230Y021089D01*
X001165Y020930D02*
X000885Y020930D01*
X000885Y020772D02*
X001126Y020772D01*
X001126Y020613D02*
X000885Y020613D01*
X000885Y020455D02*
X001158Y020455D01*
X001223Y020296D02*
X000885Y020296D01*
X000885Y020138D02*
X001353Y020138D01*
X001585Y019979D02*
X000885Y019979D01*
X000885Y019821D02*
X003094Y019821D01*
X002935Y019662D02*
X000885Y019662D01*
X000885Y019504D02*
X002817Y019504D01*
X002817Y019345D02*
X000885Y019345D01*
X000885Y019187D02*
X002817Y019187D01*
X002893Y019028D02*
X000885Y019028D01*
X000885Y018870D02*
X003052Y018870D01*
X002984Y018711D02*
X000885Y018711D01*
X000885Y018553D02*
X002826Y018553D01*
X002817Y018394D02*
X000885Y018394D01*
X000885Y018236D02*
X002817Y018236D01*
X002844Y018077D02*
X000885Y018077D01*
X000885Y017919D02*
X003003Y017919D01*
X002778Y017602D02*
X006575Y017602D01*
X006690Y017919D02*
X008477Y017919D01*
X008477Y018077D02*
X006849Y018077D01*
X006876Y018236D02*
X008477Y018236D01*
X008477Y018394D02*
X006876Y018394D01*
X006867Y018553D02*
X008477Y018553D01*
X008477Y018711D02*
X006709Y018711D01*
X006641Y018870D02*
X008477Y018870D01*
X008477Y019028D02*
X006800Y019028D01*
X006876Y019187D02*
X008477Y019187D01*
X008477Y019345D02*
X006876Y019345D01*
X006876Y019504D02*
X008477Y019504D01*
X008477Y019662D02*
X006758Y019662D01*
X006599Y019821D02*
X008477Y019821D01*
X008477Y019979D02*
X004037Y019979D01*
X004037Y019821D02*
X004094Y019821D01*
X004037Y020138D02*
X008477Y020138D01*
X008477Y020296D02*
X004037Y020296D01*
X004037Y020455D02*
X008477Y020455D01*
X008477Y020613D02*
X004037Y020613D01*
X004037Y020772D02*
X008477Y020772D01*
X008477Y020930D02*
X004037Y020930D01*
X004037Y021089D02*
X008477Y021089D01*
X008477Y021247D02*
X004037Y021247D01*
X004037Y021406D02*
X008477Y021406D01*
X008477Y021564D02*
X004037Y021564D01*
X004037Y021723D02*
X008477Y021723D01*
X008477Y021881D02*
X004037Y021881D01*
X004037Y022040D02*
X008477Y022040D01*
X008477Y022198D02*
X007518Y022198D01*
X007410Y022154D02*
X007693Y022271D01*
X007910Y022488D01*
X008027Y022771D01*
X008027Y023077D01*
X007910Y023361D01*
X007693Y023577D01*
X007410Y023695D01*
X007103Y023695D01*
X006820Y023577D01*
X006603Y023361D01*
X006486Y023077D01*
X006486Y022771D01*
X006603Y022488D01*
X006820Y022271D01*
X007103Y022154D01*
X007410Y022154D01*
X007779Y022357D02*
X008477Y022357D01*
X008477Y022515D02*
X007921Y022515D01*
X007987Y022674D02*
X008477Y022674D01*
X008477Y022832D02*
X008027Y022832D01*
X008027Y022991D02*
X008477Y022991D01*
X008477Y023149D02*
X007997Y023149D01*
X007932Y023308D02*
X008477Y023308D01*
X008477Y023466D02*
X007804Y023466D01*
X007579Y023625D02*
X008477Y023625D01*
X008477Y023783D02*
X000885Y023783D01*
X000885Y023625D02*
X006934Y023625D01*
X006709Y023466D02*
X000885Y023466D01*
X000885Y023308D02*
X004161Y023308D01*
X004352Y023308D02*
X006581Y023308D01*
X006516Y023149D02*
X004516Y023149D01*
X004537Y022991D02*
X006486Y022991D01*
X006486Y022832D02*
X004441Y022832D01*
X004182Y022674D02*
X006526Y022674D01*
X006592Y022515D02*
X004050Y022515D01*
X004037Y022357D02*
X006734Y022357D01*
X006996Y022198D02*
X004037Y022198D01*
X003846Y022832D02*
X000885Y022832D01*
X000885Y022674D02*
X003712Y022674D01*
X003677Y022515D02*
X000885Y022515D01*
X000885Y022357D02*
X003677Y022357D01*
X003677Y022198D02*
X000885Y022198D01*
X000885Y022040D02*
X003677Y022040D01*
X003677Y021881D02*
X000885Y021881D01*
X000885Y021723D02*
X003677Y021723D01*
X003977Y022991D02*
X000885Y022991D01*
X000885Y023149D02*
X003997Y023149D01*
X003135Y025207D02*
X003153Y025224D01*
X006321Y025224D01*
X006338Y025207D01*
X006441Y025164D01*
X006552Y025164D01*
X006655Y025207D01*
X006734Y025286D01*
X006777Y025388D01*
X006777Y025500D01*
X006734Y025603D01*
X006655Y025682D01*
X006552Y025724D01*
X006441Y025724D01*
X006338Y025682D01*
X006321Y025664D01*
X003153Y025664D01*
X003135Y025682D01*
X003032Y025724D01*
X002921Y025724D01*
X002818Y025682D01*
X002739Y025603D01*
X002697Y025500D01*
X002697Y025388D01*
X002739Y025286D01*
X002818Y025207D01*
X002921Y025164D01*
X003032Y025164D01*
X003135Y025207D01*
X003138Y025210D02*
X006335Y025210D01*
X006347Y025685D02*
X003126Y025685D01*
X002977Y025444D02*
X006497Y025444D01*
X006646Y025685D02*
X008477Y025685D01*
X008477Y025527D02*
X006766Y025527D01*
X006768Y025368D02*
X008477Y025368D01*
X008477Y025210D02*
X006658Y025210D01*
X006638Y025864D02*
X006357Y026145D01*
X006357Y026324D01*
X006817Y026324D01*
X006857Y026324D01*
X006857Y026364D01*
X007317Y026364D01*
X007317Y026543D01*
X007035Y026824D01*
X006857Y026824D01*
X006857Y026364D01*
X006817Y026364D01*
X006817Y026824D01*
X006638Y026824D01*
X006357Y026543D01*
X006357Y026364D01*
X006817Y026364D01*
X006817Y026324D01*
X006817Y025864D01*
X006638Y025864D01*
X006500Y026002D02*
X002774Y026002D01*
X002755Y025984D02*
X003037Y026265D01*
X003037Y026444D01*
X002577Y026444D01*
X002577Y026484D01*
X003037Y026484D01*
X003037Y026663D01*
X002755Y026944D01*
X002577Y026944D01*
X002577Y026484D01*
X002537Y026484D01*
X002537Y026944D01*
X002358Y026944D01*
X002077Y026663D01*
X002077Y026484D01*
X002537Y026484D01*
X002537Y026444D01*
X002577Y026444D01*
X002577Y025984D01*
X002755Y025984D01*
X002827Y025685D02*
X000885Y025685D01*
X000885Y025527D02*
X002708Y025527D01*
X002705Y025368D02*
X000885Y025368D01*
X000885Y025210D02*
X002815Y025210D01*
X002537Y025984D02*
X002537Y026444D01*
X002077Y026444D01*
X002077Y026265D01*
X002358Y025984D01*
X002537Y025984D01*
X002537Y026002D02*
X002577Y026002D01*
X002577Y026161D02*
X002537Y026161D01*
X002537Y026319D02*
X002577Y026319D01*
X002577Y026478D02*
X004133Y026478D01*
X004043Y026568D02*
X004260Y026351D01*
X004543Y026234D01*
X004850Y026234D01*
X005133Y026351D01*
X005350Y026568D01*
X005467Y026851D01*
X005467Y027157D01*
X005350Y027441D01*
X005133Y027657D01*
X004850Y027775D01*
X004543Y027775D01*
X004260Y027657D01*
X004043Y027441D01*
X003926Y027157D01*
X003926Y026851D01*
X004043Y026568D01*
X004015Y026636D02*
X003037Y026636D01*
X002905Y026795D02*
X003949Y026795D01*
X003926Y026953D02*
X000885Y026953D01*
X000885Y026795D02*
X001208Y026795D01*
X001230Y027112D02*
X000885Y027112D01*
X000885Y027270D02*
X001077Y027270D01*
X001077Y027265D02*
X001358Y026984D01*
X001537Y026984D01*
X001537Y027444D01*
X001077Y027444D01*
X001077Y027265D01*
X001077Y027429D02*
X000885Y027429D01*
X000885Y027587D02*
X001077Y027587D01*
X001159Y027746D02*
X000885Y027746D01*
X001358Y026944D02*
X001077Y026663D01*
X001077Y026484D01*
X001537Y026484D01*
X001537Y026944D01*
X001358Y026944D01*
X001577Y026944D02*
X001577Y026484D01*
X002037Y026484D01*
X002037Y026663D01*
X001755Y026944D01*
X001577Y026944D01*
X001577Y026984D02*
X001755Y026984D01*
X002037Y027265D01*
X002037Y027444D01*
X001577Y027444D01*
X001577Y026984D01*
X001577Y027112D02*
X001537Y027112D01*
X001537Y027270D02*
X001577Y027270D01*
X001577Y027429D02*
X001537Y027429D01*
X001537Y026795D02*
X001577Y026795D01*
X001577Y026636D02*
X001537Y026636D01*
X001537Y026484D02*
X001577Y026484D01*
X001577Y026444D01*
X002037Y026444D01*
X002037Y026265D01*
X001755Y025984D01*
X001577Y025984D01*
X001577Y026444D01*
X001537Y026444D01*
X001537Y025984D01*
X001358Y025984D01*
X001077Y026265D01*
X001077Y026444D01*
X001537Y026444D01*
X001537Y026484D01*
X001537Y026478D02*
X000885Y026478D01*
X000885Y026636D02*
X001077Y026636D01*
X001077Y026319D02*
X000885Y026319D01*
X000885Y026161D02*
X001181Y026161D01*
X001340Y026002D02*
X000885Y026002D01*
X000885Y025844D02*
X008477Y025844D01*
X008477Y026002D02*
X008174Y026002D01*
X008035Y025864D02*
X008317Y026145D01*
X008317Y026324D01*
X007857Y026324D01*
X007857Y026364D01*
X008317Y026364D01*
X008317Y026543D01*
X008035Y026824D01*
X007857Y026824D01*
X007857Y026364D01*
X007817Y026364D01*
X007817Y026824D01*
X007638Y026824D01*
X007357Y026543D01*
X007357Y026364D01*
X007817Y026364D01*
X007817Y026324D01*
X007857Y026324D01*
X007857Y025864D01*
X008035Y025864D01*
X007857Y026002D02*
X007817Y026002D01*
X007817Y025864D02*
X007817Y026324D01*
X007357Y026324D01*
X007357Y026145D01*
X007638Y025864D01*
X007817Y025864D01*
X007817Y026161D02*
X007857Y026161D01*
X007857Y026319D02*
X007817Y026319D01*
X007817Y026478D02*
X007857Y026478D01*
X007857Y026636D02*
X007817Y026636D01*
X007817Y026795D02*
X007857Y026795D01*
X007857Y026864D02*
X008035Y026864D01*
X008317Y027145D01*
X008317Y027324D01*
X007857Y027324D01*
X007857Y027364D01*
X008317Y027364D01*
X008317Y027543D01*
X008035Y027824D01*
X007857Y027824D01*
X007857Y027364D01*
X007817Y027364D01*
X007817Y027824D01*
X007638Y027824D01*
X007357Y027543D01*
X007357Y027364D01*
X007817Y027364D01*
X007817Y027324D01*
X007857Y027324D01*
X007857Y026864D01*
X007817Y026864D02*
X007817Y027324D01*
X007357Y027324D01*
X007357Y027145D01*
X007638Y026864D01*
X007817Y026864D01*
X007817Y026953D02*
X007857Y026953D01*
X007857Y027112D02*
X007817Y027112D01*
X007817Y027270D02*
X007857Y027270D01*
X007857Y027429D02*
X007817Y027429D01*
X007817Y027587D02*
X007857Y027587D01*
X007857Y027746D02*
X007817Y027746D01*
X007559Y027746D02*
X007114Y027746D01*
X007035Y027824D02*
X006857Y027824D01*
X006857Y027364D01*
X007317Y027364D01*
X007317Y027543D01*
X007035Y027824D01*
X006857Y027746D02*
X006817Y027746D01*
X006817Y027824D02*
X006638Y027824D01*
X006357Y027543D01*
X006357Y027364D01*
X006817Y027364D01*
X006817Y027824D01*
X006817Y027587D02*
X006857Y027587D01*
X006857Y027429D02*
X006817Y027429D01*
X006817Y027364D02*
X006857Y027364D01*
X006857Y027324D01*
X007317Y027324D01*
X007317Y027145D01*
X007035Y026864D01*
X006857Y026864D01*
X006857Y027324D01*
X006817Y027324D01*
X006817Y026864D01*
X006638Y026864D01*
X006357Y027145D01*
X006357Y027324D01*
X006817Y027324D01*
X006817Y027364D01*
X006817Y027270D02*
X006857Y027270D01*
X006857Y027112D02*
X006817Y027112D01*
X006817Y026953D02*
X006857Y026953D01*
X006857Y026795D02*
X006817Y026795D01*
X006817Y026636D02*
X006857Y026636D01*
X006857Y026478D02*
X006817Y026478D01*
X006817Y026319D02*
X006857Y026319D01*
X006857Y026324D02*
X006857Y025864D01*
X007035Y025864D01*
X007317Y026145D01*
X007317Y026324D01*
X006857Y026324D01*
X006857Y026161D02*
X006817Y026161D01*
X006817Y026002D02*
X006857Y026002D01*
X007174Y026002D02*
X007500Y026002D01*
X007357Y026161D02*
X007317Y026161D01*
X007317Y026319D02*
X007357Y026319D01*
X007357Y026478D02*
X007317Y026478D01*
X007223Y026636D02*
X007450Y026636D01*
X007549Y026953D02*
X007125Y026953D01*
X007065Y026795D02*
X007608Y026795D01*
X007390Y027112D02*
X007283Y027112D01*
X007317Y027270D02*
X007357Y027270D01*
X007357Y027429D02*
X007317Y027429D01*
X007272Y027587D02*
X007401Y027587D01*
X008065Y026795D02*
X008477Y026795D01*
X008477Y026953D02*
X008125Y026953D01*
X008223Y026636D02*
X008477Y026636D01*
X008477Y026478D02*
X008317Y026478D01*
X008317Y026319D02*
X008477Y026319D01*
X008477Y026161D02*
X008317Y026161D01*
X008283Y027112D02*
X008477Y027112D01*
X008477Y027270D02*
X008317Y027270D01*
X008317Y027429D02*
X008477Y027429D01*
X008477Y027587D02*
X008272Y027587D01*
X008114Y027746D02*
X008477Y027746D01*
X008477Y025051D02*
X000885Y025051D01*
X000885Y024893D02*
X008477Y024893D01*
X008477Y024734D02*
X000885Y024734D01*
X000885Y024576D02*
X008477Y024576D01*
X008477Y024417D02*
X000885Y024417D01*
X000885Y024259D02*
X008477Y024259D01*
X008477Y024100D02*
X000885Y024100D01*
X000885Y023942D02*
X008477Y023942D01*
X006608Y026795D02*
X005444Y026795D01*
X005467Y026953D02*
X006549Y026953D01*
X006390Y027112D02*
X005467Y027112D01*
X005421Y027270D02*
X006357Y027270D01*
X006357Y027429D02*
X005355Y027429D01*
X005203Y027587D02*
X006401Y027587D01*
X006559Y027746D02*
X004920Y027746D01*
X004473Y027746D02*
X002954Y027746D01*
X003037Y027587D02*
X004190Y027587D01*
X004038Y027429D02*
X003037Y027429D01*
X003037Y027444D02*
X002577Y027444D01*
X002577Y026984D01*
X002755Y026984D01*
X003037Y027265D01*
X003037Y027444D01*
X003037Y027270D02*
X003973Y027270D01*
X003926Y027112D02*
X002883Y027112D01*
X003037Y026319D02*
X004337Y026319D01*
X005057Y026319D02*
X006357Y026319D01*
X006357Y026161D02*
X002932Y026161D01*
X002537Y026478D02*
X001577Y026478D01*
X001577Y026319D02*
X001537Y026319D01*
X001537Y026161D02*
X001577Y026161D01*
X001577Y026002D02*
X001537Y026002D01*
X001774Y026002D02*
X002340Y026002D01*
X002181Y026161D02*
X001932Y026161D01*
X002037Y026319D02*
X002077Y026319D01*
X002077Y026636D02*
X002037Y026636D01*
X001905Y026795D02*
X002208Y026795D01*
X002230Y027112D02*
X001883Y027112D01*
X002037Y027270D02*
X002077Y027270D01*
X002077Y027265D02*
X002358Y026984D01*
X002537Y026984D01*
X002537Y027444D01*
X002077Y027444D01*
X002077Y027265D01*
X002077Y027429D02*
X002037Y027429D01*
X002037Y027587D02*
X002077Y027587D01*
X002159Y027746D02*
X001954Y027746D01*
X002537Y027429D02*
X002577Y027429D01*
X002577Y027270D02*
X002537Y027270D01*
X002537Y027112D02*
X002577Y027112D01*
X002577Y026795D02*
X002537Y026795D01*
X002537Y026636D02*
X002577Y026636D01*
X004599Y019821D02*
X005094Y019821D01*
X004935Y019662D02*
X004758Y019662D01*
X004747Y017919D02*
X005003Y017919D01*
X004588Y017760D02*
X008477Y017760D01*
X008477Y017602D02*
X008098Y017602D01*
X008035Y017664D02*
X007857Y017664D01*
X007857Y017204D01*
X008317Y017204D01*
X008317Y017383D01*
X008035Y017664D01*
X007857Y017602D02*
X007817Y017602D01*
X007817Y017664D02*
X007638Y017664D01*
X007357Y017383D01*
X007357Y017204D01*
X007817Y017204D01*
X007817Y017664D01*
X007817Y017443D02*
X007857Y017443D01*
X007857Y017285D02*
X007817Y017285D01*
X007817Y017204D02*
X007857Y017204D01*
X007857Y017164D01*
X008317Y017164D01*
X008317Y016985D01*
X008035Y016704D01*
X007857Y016704D01*
X007857Y017164D01*
X007817Y017164D01*
X007817Y016704D01*
X007638Y016704D01*
X007357Y016985D01*
X007357Y017164D01*
X007817Y017164D01*
X007817Y017204D01*
X007817Y017126D02*
X007857Y017126D01*
X007857Y016968D02*
X007817Y016968D01*
X007817Y016809D02*
X007857Y016809D01*
X007857Y016651D02*
X007817Y016651D01*
X007817Y016492D02*
X007857Y016492D01*
X007857Y016334D02*
X007817Y016334D01*
X007624Y016651D02*
X007049Y016651D01*
X007035Y016704D02*
X007317Y016985D01*
X007317Y017164D01*
X006857Y017164D01*
X006857Y016704D01*
X007035Y016704D01*
X007140Y016809D02*
X007533Y016809D01*
X007466Y016492D02*
X007207Y016492D01*
X007317Y016334D02*
X007357Y016334D01*
X007357Y016017D02*
X007317Y016017D01*
X007299Y016968D02*
X007374Y016968D01*
X007357Y017126D02*
X007317Y017126D01*
X007317Y017285D02*
X007357Y017285D01*
X007417Y017443D02*
X007256Y017443D01*
X007098Y017602D02*
X007575Y017602D01*
X008049Y016651D02*
X008477Y016651D01*
X008477Y016809D02*
X008140Y016809D01*
X008207Y016492D02*
X008477Y016492D01*
X008477Y016334D02*
X008317Y016334D01*
X008299Y016968D02*
X008477Y016968D01*
X008477Y017126D02*
X008317Y017126D01*
X008317Y017285D02*
X008477Y017285D01*
X008477Y017443D02*
X008256Y017443D01*
X006857Y017443D02*
X006817Y017443D01*
X006817Y017285D02*
X006857Y017285D01*
X006857Y017126D02*
X006817Y017126D01*
X006817Y016968D02*
X006857Y016968D01*
X006857Y016809D02*
X006817Y016809D01*
X006817Y016651D02*
X006857Y016651D01*
X006857Y016492D02*
X006817Y016492D01*
X006817Y016334D02*
X006857Y016334D01*
X006817Y017602D02*
X006857Y017602D01*
X006357Y016017D02*
X005319Y016017D01*
X005690Y017919D02*
X006003Y017919D01*
X005935Y019662D02*
X005758Y019662D01*
X005599Y019821D02*
X006094Y019821D01*
X004394Y016017D02*
X002997Y016017D01*
X002537Y016334D02*
X002497Y016334D01*
X002497Y016492D02*
X002537Y016492D01*
X002537Y016651D02*
X002497Y016651D01*
X002497Y016809D02*
X002537Y016809D01*
X002537Y016968D02*
X002497Y016968D01*
X002497Y017126D02*
X002537Y017126D01*
X002537Y017285D02*
X002497Y017285D01*
X002497Y017443D02*
X002537Y017443D01*
X002537Y017602D02*
X002497Y017602D01*
X001097Y017443D02*
X000885Y017443D01*
X000885Y017285D02*
X001037Y017285D01*
X001037Y017126D02*
X000885Y017126D01*
X000885Y016968D02*
X001054Y016968D01*
X005260Y026478D02*
X006357Y026478D01*
X006450Y026636D02*
X005378Y026636D01*
M02*
